…
Also it is possible to access the performance of each article:

``` r
tf_calc_metrics(forecasts, test_data, detailed = TRUE)
#> # A tibble: 24 x 4
#>    key        iterate   metric value
#>    <chr>      <chr>     <chr>  <dbl>
#>  1 auto.arima Article_B mae     71  
#>  2 prophet    Article_C mae     88.3
#>  3 prophet    Article_B mae     90.0
#>  4 auto.arima Article_C mae    123. 
#>  5 auto.arima Article_A mae    177. 
#>  6 prophet    Article_A mae    212. 
#>  7 prophet    Article_D mae    237. 
#>  8 auto.arima Article_D mae    243. 
#>  9 auto.arima Article_B rmse    86.2
#> 10 prophet    Article_C rmse   102. 
#> # ... with 14 more rows
```
…
There are functions for splitting timeseries in trend, seasonality and
noise

``` r
tf_decompose(train_data)
#> frequency = 12 months
#> trend = 24 months
#> frequency = 12 months
#> trend = 24 months
#> frequency = 12 months
#> trend = 24 months
#> frequency = 12 months
#> trend = 24 months
#> # A tibble: 192 x 6
#>    date           y iterate   season trend remainder
#>    <date>     <dbl> <chr>      <dbl> <dbl>     <dbl>
#>  1 2012-01-01  1179 Article_A  799.   271.    109.  
#>  2 2012-02-01   516 Article_A  208.   270.     37.8 
#>  3 2012-03-01   381 Article_A  132.   269.    -19.2 
#>  4 2012-04-01   171 Article_A  -15.7  267.    -80.8 
#>  5 2012-05-01   264 Article_A  -15.4  266.     13.0 
#>  6 2012-06-01   135 Article_A -110.   265.    -20.3 
#>  7 2012-07-01   225 Article_A  -44.4  264.      4.93
#>  8 2012-08-01    66 Article_A -183.   264.    -15.0 
#>  9 2012-09-01   123 Article_A -107.   263.    -32.3 
#> 10 2012-10-01    54 Article_A -189.   262.    -18.3 
#> # ... with 182 more rows
```
…
<img src="man/figures/README-unnamed-chunk-13-1.png" width="100%" />

Afterwards it’s possible to remove the boxcox transformation:

``` r
tf_remove_boxcox(train_data_boxcox, lambdas)
#> # A tibble: 192 x 3
#>    date            y iterate  
#>    <date>      <dbl> <chr>    
#>  1 2012-01-01 1179.  Article_A
#>  2 2012-02-01  516.  Article_A
#>  3 2012-03-01  381   Article_A
#>  4 2012-04-01  171.  Article_A
#>  5 2012-05-01  264.  Article_A
#>  6 2012-06-01  135.  Article_A
#>  7 2012-07-01  225.  Article_A
#>  8 2012-08-01   66.0 Article_A
#>  9 2012-09-01  123.  Article_A
#> 10 2012-10-01   54.0 Article_A
#> # ... with 182 more rows
```
…
